{
    "page": 2,
    "total_results": 10000,
    "total_pages": 500,
    "results": [{
        "popularity": 69.978,
        "vote_count": 2969,
        "video": false,
        "poster_path": "\/db32LaOibwEliAmSL2jjDF6oDdj.jpg",
        "id": 181812,
        "adult": false,
        "backdrop_path": "\/jOzrELAzFxtMx2I4uDGHOotdfsS.jpg",
        "original_language": "en",
        "original_title": "Star Wars: The Rise of Skywalker",
        "genre_ids": [28, 12, 878],
        "title": "Star Wars: The Rise of Skywalker",
        "vote_average": 6.5,
        "overview": "The surviving Resistance faces the First Order once again as the journey of Rey, Finn and Poe Dameron continues. With the power and knowledge of generations behind them, the final battle begins.",
        "release_date": "2019-12-18"
    }, {
        "popularity": 63.225,
        "vote_count": 104,
        "video": false,
        "poster_path": "\/MBiKqTsouYqAACLYNDadsjhhC0.jpg",
        "id": 486589,
        "adult": false,
        "backdrop_path": "\/bga3i5jcejBekr2FCGJga1fYCh.jpg",
        "original_language": "en",
        "original_title": "Red Shoes and the Seven Dwarfs",
        "genre_ids": [16, 10749],
        "title": "Red Shoes and the Seven Dwarfs",
        "vote_average": 6.5,
        "overview": "Princes who have been turned into Dwarfs seek the red shoes of a lady in order to break the spell, although it will not be easy.",
        "release_date": "2019-07-25"
    }, {
        "popularity": 69.714,
        "vote_count": 3,
        "video": false,
        "poster_path": "\/33VdppGbeNxICrFUtW2WpGHvfYc.jpg",
        "id": 481848,
        "adult": false,
        "backdrop_path": "\/yFRpUmsreYO5Bc0HVBTsJsHIIox.jpg",
        "original_language": "en",
        "original_title": "The Call of the Wild",
        "genre_ids": [12, 18, 10751],
        "title": "The Call of the Wild",
        "vote_average": 5.5,
        "overview": "A sled dog struggles for survival in the wilds of the Yukon.",
        "release_date": "2020-02-19"
    }, {
        "popularity": 81.082,
        "vote_count": 331,
        "video": false,
        "poster_path": "\/hj8pyoNnynGeJTAbl7jcLZO8Uhx.jpg",
        "id": 522162,
        "adult": false,
        "backdrop_path": "\/xjP88DFPCQ81mbZHXFscyYtGskT.jpg",
        "original_language": "en",
        "original_title": "Midway",
        "genre_ids": [28, 18, 36, 10752],
        "title": "Midway",
        "vote_average": 6.7,
        "overview": "The story of the Battle of Midway, and the leaders and soldiers who used their instincts, fortitude and bravery to overcome massive odds.",
        "release_date": "2019-11-06"
    }, {
        "popularity": 54.83,
        "vote_count": 1844,
        "video": false,
        "poster_path": "\/vloNTScJ3w7jwNwtNGoG8DbTThv.jpg",
        "id": 420809,
        "adult": false,
        "backdrop_path": "\/skvI4rYFrKXS73BJxWGH54Omlvv.jpg",
        "original_language": "en",
        "original_title": "Maleficent: Mistress of Evil",
        "genre_ids": [12, 14, 10751],
        "title": "Maleficent: Mistress of Evil",
        "vote_average": 7.2,
        "overview": "Maleficent and her goddaughter Aurora begin to question the complex family ties that bind them as they are pulled in different directions by impending nuptials, unexpected allies, and dark new forces at play.",
        "release_date": "2019-10-16"
    }, {
        "popularity": 63.598,
        "vote_count": 24,
        "video": false,
        "poster_path": "\/qZ1KAgfdeNbzrNYKW4BIRHdEBJ9.jpg",
        "id": 666750,
        "adult": false,
        "backdrop_path": "\/6mKAKhj8POVGqV1GsroS5mGIUe9.jpg",
        "original_language": "en",
        "original_title": "Dragonheart: Vengeance",
        "genre_ids": [14],
        "title": "Dragonheart: Vengeance",
        "vote_average": 6.6,
        "overview": "Lukas, a young farmer whose family is killed by savage raiders in the countryside, sets out on an epic quest for revenge, forming an unlikely trio with a majestic dragon and a swashbuckling, sword-fighting mercenary, Darius.",
        "release_date": "2020-02-04"
    }, {
        "popularity": 63.289,
        "vote_count": 74,
        "video": false,
        "poster_path": "\/yqZdRSC6wfX6AGtBPfGbpvmNKag.jpg",
        "id": 539537,
        "adult": false,
        "backdrop_path": "\/dzfiE2VHY362dGI62XfZ2iI87CT.jpg",
        "original_language": "en",
        "original_title": "Fantasy Island",
        "genre_ids": [14, 27, 878],
        "title": "Fantasy Island",
        "vote_average": 4.6,
        "overview": "A group of contest winners arrive at an island hotel to live out their dreams, only to find themselves trapped in nightmare scenarios.",
        "release_date": "2020-02-12"
    }, {
        "popularity": 59.224,
        "vote_count": 1042,
        "video": false,
        "poster_path": "\/p69QzIBbN06aTYqRRiCOY1emNBh.jpg",
        "id": 501170,
        "adult": false,
        "backdrop_path": "\/1nm0sk8UUx9jHCTHuMKe2jkt4Pn.jpg",
        "original_language": "en",
        "original_title": "Doctor Sleep",
        "genre_ids": [27],
        "title": "Doctor Sleep",
        "vote_average": 7.1,
        "overview": "Still irrevocably scarred by the trauma he endured as a child at the Overlook, Dan Torrance has fought to find some semblance of peace. But that peace is shattered when he encounters Abra, a courageous teenager with her own powerful extrasensory gift, known as the 'shine'. Instinctively recognising that Dan shares her power, Abra has sought him out, desperate for his help against the merciless Rose the Hat and her followers.",
        "release_date": "2019-10-30"
    }, {
        "popularity": 57.751,
        "vote_count": 4669,
        "video": false,
        "poster_path": "\/8j58iEBw9pOXFD2L0nt0ZXeHviB.jpg",
        "id": 466272,
        "adult": false,
        "backdrop_path": "\/yB2hTgz9CTVYjlMWPSl3LPx5nWj.jpg",
        "original_language": "en",
        "original_title": "Once Upon a Time… in Hollywood",
        "genre_ids": [35, 18, 53],
        "title": "Once Upon a Time… in Hollywood",
        "vote_average": 7.5,
        "overview": "Los Angeles, 1969. TV star Rick Dalton, a struggling actor specializing in westerns, and stuntman Cliff Booth, his best friend, try to survive in a constantly changing movie industry. Dalton is the neighbor of the young and promising actress and model Sharon Tate, who has just married the prestigious Polish director Roman Polanski…",
        "release_date": "2019-07-25"
    }, {
        "popularity": 58.51,
        "vote_count": 81,
        "video": false,
        "poster_path": "\/hJ6YEbrjFvToa5c7IiUqILoB6Je.jpg",
        "id": 552178,
        "adult": false,
        "backdrop_path": "\/4ZSlTfkHtgTTupCaLbseXQQzZha.jpg",
        "original_language": "en",
        "original_title": "Dark Waters",
        "genre_ids": [18],
        "title": "Dark Waters",
        "vote_average": 7.5,
        "overview": "A tenacious attorney uncovers a dark secret that connects a growing number of unexplained deaths due to one of the world's largest corporations. In the process, he risks everything — his future, his family, and his own life — to expose the truth.",
        "release_date": "2019-11-22"
    }, {
        "popularity": 57.485,
        "vote_count": 278,
        "video": false,
        "poster_path": "\/bSN9SysoRBMwJKNkfOlQlCw2YQO.jpg",
        "id": 535292,
        "adult": false,
        "backdrop_path": "\/5bUExJx4NLXJSaphRxO5VflaKdG.jpg",
        "original_language": "en",
        "original_title": "21 Bridges",
        "genre_ids": [28, 80, 18],
        "title": "21 Bridges",
        "vote_average": 6.3,
        "overview": "An embattled NYPD detective, is thrust into a citywide manhunt for a pair of cop killers after uncovering a massive and unexpected conspiracy. As the night unfolds, lines become blurred on who he is pursuing, and who is in pursuit of him.",
        "release_date": "2019-10-24"
    }, {
        "popularity": 48.121,
        "vote_count": 1451,
        "video": false,
        "poster_path": "\/dtRbVsUb5O12WWO54SRpiMtHKC0.jpg",
        "id": 338967,
        "adult": false,
        "backdrop_path": "\/3ghImmHdp4RnC3UkL6hpLayclnb.jpg",
        "original_language": "en",
        "original_title": "Zombieland: Double Tap",
        "genre_ids": [28, 35, 27],
        "title": "Zombieland: Double Tap",
        "vote_average": 6.9,
        "overview": "Columbus, Tallahassee, Wichita, and Little Rock move to the American heartland as they face off against evolved zombies, fellow survivors, and the growing pains of the snarky makeshift family.",
        "release_date": "2019-10-09"
    }, {
        "popularity": 49.606,
        "vote_count": 6034,
        "video": false,
        "poster_path": "\/4q2NNj4S5dG2RLF9CpXsej7yXl.jpg",
        "id": 429617,
        "adult": false,
        "backdrop_path": "\/5myQbDzw3l8K9yofUXRJ4UTVgam.jpg",
        "original_language": "en",
        "original_title": "Spider-Man: Far from Home",
        "genre_ids": [28, 12, 878],
        "title": "Spider-Man: Far from Home",
        "vote_average": 7.5,
        "overview": "Peter Parker and his friends go on a summer trip to Europe. However, they will hardly be able to rest - Peter will have to agree to help Nick Fury uncover the mystery of creatures that cause natural disasters and destruction throughout the continent.",
        "release_date": "2019-06-28"
    }, {
        "popularity": 42.164,
        "vote_count": 13068,
        "video": false,
        "poster_path": "\/rzRwTcFvttcN1ZpX2xv4j3tSdJu.jpg",
        "id": 284053,
        "adult": false,
        "backdrop_path": "\/kaIfm5ryEOwYg8mLbq8HkPuM1Fo.jpg",
        "original_language": "en",
        "original_title": "Thor: Ragnarok",
        "genre_ids": [28, 12, 35, 14],
        "title": "Thor: Ragnarok",
        "vote_average": 7.5,
        "overview": "Thor is imprisoned on the other side of the universe and finds himself in a race against time to get back to Asgard to stop Ragnarok, the destruction of his home-world and the end of Asgardian civilization, at the hands of an all-powerful new threat, the ruthless Hela.",
        "release_date": "2017-10-25"
    }, {
        "popularity": 50.756,
        "vote_count": 4854,
        "video": false,
        "poster_path": "\/3iYQTLGoy7QnjcUYRJy4YrAgGvp.jpg",
        "id": 420817,
        "adult": false,
        "backdrop_path": "\/rVqY0Bo4Npf6EIONUROxjYAJfmD.jpg",
        "original_language": "en",
        "original_title": "Aladdin",
        "genre_ids": [12, 35, 14, 10749, 10751],
        "title": "Aladdin",
        "vote_average": 7,
        "overview": "A kindhearted street urchin named Aladdin embarks on a magical adventure after finding a lamp that releases a wisecracking genie while a power-hungry Grand Vizier vies for the same lamp that has the power to make their deepest wishes come true.",
        "release_date": "2019-05-22"
    }, {
        "popularity": 53.911,
        "vote_count": 538,
        "video": false,
        "poster_path": "\/q1epO0eO8DWu8Vo8tPfvVlzW48T.jpg",
        "id": 481084,
        "adult": false,
        "backdrop_path": "\/ur4NTeFGZmQ6Hz5uEkAMgPI3WRg.jpg",
        "original_language": "en",
        "original_title": "The Addams Family",
        "genre_ids": [16, 35, 14, 10751],
        "title": "The Addams Family",
        "vote_average": 6.1,
        "overview": "The Addams family's lives begin to unravel when they face-off against a treacherous, greedy crafty reality-TV host while also preparing for their extended family to arrive for a major celebration.",
        "release_date": "2019-10-10"
    }, {
        "popularity": 41.869,
        "vote_count": 24536,
        "video": false,
        "poster_path": "\/qmDpIHrmpJINaRKAfWQfftjCdyi.jpg",
        "id": 27205,
        "adult": false,
        "backdrop_path": "\/s2bT29y0ngXxxu2IA8AOzzXTRhd.jpg",
        "original_language": "en",
        "original_title": "Inception",
        "genre_ids": [28, 12, 878],
        "title": "Inception",
        "vote_average": 8.3,
        "overview": "Cobb, a skilled thief who commits corporate espionage by infiltrating the subconscious of his targets is offered a chance to regain his old life as payment for a task considered to be impossible: \"inception\", the implantation of another person's idea into a target's subconscious.",
        "release_date": "2010-07-15"
    }, {
        "popularity": 43.456,
        "vote_count": 15669,
        "video": false,
        "poster_path": "\/gHPtCmMeDqjaGqnMrWGDmD3nKd2.jpg",
        "id": 671,
        "adult": false,
        "backdrop_path": "\/hziiv14OpD73u9gAak4XDDfBKa2.jpg",
        "original_language": "en",
        "original_title": "Harry Potter and the Philosopher's Stone",
        "genre_ids": [12, 14, 10751],
        "title": "Harry Potter and the Philosopher's Stone",
        "vote_average": 7.8,
        "overview": "Harry Potter has lived under the stairs at his aunt and uncle's house his whole life. But on his 11th birthday, he learns he's a powerful wizard -- with a place waiting for him at the Hogwarts School of Witchcraft and Wizardry. As he learns to harness his newfound powers with the help of the school's kindly headmaster, Harry uncovers the truth about his parents' deaths -- and about the villain who's to blame.",
        "release_date": "2001-11-16"
    }, {
        "popularity": 42.238,
        "vote_count": 19735,
        "video": false,
        "poster_path": "\/y31QB9kn3XSudA15tV7UWQ9XLuW.jpg",
        "id": 118340,
        "adult": false,
        "backdrop_path": "\/kHex2XdOmGtazk1VfJjp4bl7BIc.jpg",
        "original_language": "en",
        "original_title": "Guardians of the Galaxy",
        "genre_ids": [28, 12, 878],
        "title": "Guardians of the Galaxy",
        "vote_average": 7.9,
        "overview": "Light years from Earth, 26 years after being abducted, Peter Quill finds himself the prime target of a manhunt after discovering an orb wanted by Ronan the Accuser.",
        "release_date": "2014-07-30"
    }, {
        "popularity": 50.032,
        "vote_count": 11125,
        "video": false,
        "poster_path": "\/eFnGmj63QPUpK7QUWSOUhypIQOT.jpg",
        "id": 109445,
        "adult": false,
        "backdrop_path": "\/cN9Nbwh66TRcj2gBE8cSEZulsx3.jpg",
        "original_language": "en",
        "original_title": "Frozen",
        "genre_ids": [12, 16, 10751],
        "title": "Frozen",
        "vote_average": 7.3,
        "overview": "Young princess Anna of Arendelle dreams about finding true love at her sister Elsa’s coronation. Fate takes her on a dangerous journey in an attempt to end the eternal winter that has fallen over the kingdom. She's accompanied by ice delivery man Kristoff, his reindeer Sven, and snowman Olaf. On an adventure where she will find out what friendship, courage, family, and true love really means.",
        "release_date": "2013-11-27"
    }]
}