{
    "page": 3,
    "total_results": 10000,
    "total_pages": 500,
    "results": [{
        "popularity": 36.474,
        "vote_count": 3872,
        "video": false,
        "poster_path": "\/ziEuG1essDuWuC5lpWUaw1uXY2O.jpg",
        "id": 458156,
        "adult": false,
        "backdrop_path": "\/stemLQMLDrlpfIlZ5OjllOPT8QX.jpg",
        "original_language": "en",
        "original_title": "John Wick: Chapter 3 - Parabellum",
        "genre_ids": [28, 80, 53],
        "title": "John Wick: Chapter 3 - Parabellum",
        "vote_average": 7.1,
        "overview": "Super-assassin John Wick returns with a $14 million price tag on his head and an army of bounty-hunting killers on his trail. After killing a member of the shadowy international assassin’s guild, the High Table, John Wick is excommunicado, but the world’s most ruthless hit men and women await his every turn.",
        "release_date": "2019-05-15"
    }, {
        "popularity": 40.296,
        "vote_count": 6335,
        "video": false,
        "poster_path": "\/iiZZdoQBEYBv6id8su7ImL0oCbD.jpg",
        "id": 324857,
        "adult": false,
        "backdrop_path": "\/uUiId6cG32JSRI6RyBQSvQtLjz2.jpg",
        "original_language": "en",
        "original_title": "Spider-Man: Into the Spider-Verse",
        "genre_ids": [28, 12, 16, 35, 878],
        "title": "Spider-Man: Into the Spider-Verse",
        "vote_average": 8.4,
        "overview": "Miles Morales is juggling his life between being a high school student and being a spider-man. When Wilson \"Kingpin\" Fisk uses a super collider, others from across the Spider-Verse are transported to this dimension.",
        "release_date": "2018-12-06"
    }, {
        "popularity": 40.578,
        "vote_count": 7411,
        "video": false,
        "poster_path": "\/fa4PxEPRKWRyjzYje1jM4m30qzd.jpg",
        "id": 228150,
        "adult": false,
        "backdrop_path": "\/pKawqrtCBMmxarft7o1LbEynys7.jpg",
        "original_language": "en",
        "original_title": "Fury",
        "genre_ids": [28, 18, 10752],
        "title": "Fury",
        "vote_average": 7.4,
        "overview": "In the last months of World War II, as the Allies make their final push in the European theatre, a battle-hardened U.S. Army sergeant named 'Wardaddy' commands a Sherman tank called 'Fury' and its five-man crew on a deadly mission behind enemy lines. Outnumbered and outgunned, Wardaddy and his men face overwhelming odds in their heroic attempts to strike at the heart of Nazi Germany.",
        "release_date": "2014-10-15"
    }, {
        "popularity": 39.758,
        "vote_count": 9273,
        "video": false,
        "poster_path": "\/9zRzFJuaj0CHIOhAkcCcFTvyu2X.jpg",
        "id": 122917,
        "adult": false,
        "backdrop_path": "\/qhH3GyIfAnGv1pjdV3mw03qAilg.jpg",
        "original_language": "en",
        "original_title": "The Hobbit: The Battle of the Five Armies",
        "genre_ids": [28, 12, 14],
        "title": "The Hobbit: The Battle of the Five Armies",
        "vote_average": 7.3,
        "overview": "Immediately after the events of The Desolation of Smaug, Bilbo and the dwarves try to defend Erebor's mountain of treasure from others who claim it: the men of the ruined Laketown and the elves of Mirkwood. Meanwhile an army of Orcs led by Azog the Defiler is marching on Erebor, fueled by the rise of the dark lord Sauron. Dwarves, elves and men must unite, and the hope for Middle-Earth falls into Bilbo's hands.",
        "release_date": "2014-12-10"
    }, {
        "popularity": 40.267,
        "vote_count": 2651,
        "video": false,
        "poster_path": "\/mbm8k3GFhXS0ROd9AD1gqYbIFbM.jpg",
        "id": 398978,
        "adult": false,
        "backdrop_path": "\/nAlOfW2FXchBljZchzjWQWgypVq.jpg",
        "original_language": "en",
        "original_title": "The Irishman",
        "genre_ids": [80, 18, 36],
        "title": "The Irishman",
        "vote_average": 7.8,
        "overview": "Pennsylvania, 1956. Frank Sheeran, a war veteran of Irish origin who works as a truck driver, accidentally meets mobster Russell Bufalino. Once Frank becomes his trusted man, Bufalino sends him to Chicago with the task of helping Jimmy Hoffa, a powerful union leader related to organized crime, with whom Frank will maintain a close friendship for nearly twenty years.",
        "release_date": "2019-11-01"
    }, {
        "popularity": 48.047,
        "vote_count": 0,
        "video": false,
        "poster_path": "\/ddjI2VClxleuPHqYOWZDEWuO7PP.jpg",
        "id": 622325,
        "adult": false,
        "backdrop_path": "\/jYWV8nK4G9up8FWn4PQhzSpE4V3.jpg",
        "original_language": "tl",
        "original_title": "Cuddle Weather",
        "genre_ids": [35, 18, 10749],
        "title": "Cuddle Weather",
        "vote_average": 0,
        "overview": "After realizing that prostitutes are not entitled to the best part of love making, two sex workers form a screwy relationship as \"cuddle partners\" only to realize that they want something more.",
        "release_date": "2019-09-13"
    }, {
        "popularity": 39.74,
        "vote_count": 7958,
        "video": false,
        "poster_path": "\/2uNW4WbgBXL25BAbXGLnLqX71Sw.jpg",
        "id": 335983,
        "adult": false,
        "backdrop_path": "\/VuukZLgaCrho2Ar8Scl9HtV3yD.jpg",
        "original_language": "en",
        "original_title": "Venom",
        "genre_ids": [28, 878],
        "title": "Venom",
        "vote_average": 6.6,
        "overview": "Investigative journalist Eddie Brock attempts a comeback following a scandal, but accidentally becomes the host of Venom, a violent, super powerful alien symbiote. Soon, he must rely on his newfound powers to protect the world from a shadowy organization looking for a symbiote of their own.",
        "release_date": "2018-09-28"
    }, {
        "popularity": 35.858,
        "vote_count": 11117,
        "video": false,
        "poster_path": "\/9gLu47Zw5ertuFTZaxXOvNfy78T.jpg",
        "id": 177572,
        "adult": false,
        "backdrop_path": "\/wXBCE6sS94zb8IlnQ51OPApgfhC.jpg",
        "original_language": "en",
        "original_title": "Big Hero 6",
        "genre_ids": [28, 12, 16, 35, 10751],
        "title": "Big Hero 6",
        "vote_average": 7.8,
        "overview": "The special bond that develops between plus-sized inflatable robot Baymax, and prodigy Hiro Hamada, who team up with a group of friends to form a band of high-tech heroes.",
        "release_date": "2014-10-24"
    }, {
        "popularity": 43.974,
        "vote_count": 12909,
        "video": false,
        "poster_path": "\/btTdmkgIvOi0FFip1sPuZI2oQG6.jpg",
        "id": 11,
        "adult": false,
        "backdrop_path": "\/4iJfYYoQzZcONB9hNzg0J0wWyPH.jpg",
        "original_language": "en",
        "original_title": "Star Wars",
        "genre_ids": [28, 12, 878],
        "title": "Star Wars",
        "vote_average": 8.2,
        "overview": "Princess Leia is captured and held hostage by the evil Imperial forces in their effort to take over the galactic Empire. Venturesome Luke Skywalker and dashing captain Han Solo team together with the loveable robot duo R2-D2 and C-3PO to rescue the beautiful princess and restore peace and justice in the Empire.",
        "release_date": "1977-05-25"
    }, {
        "popularity": 47.767,
        "vote_count": 1,
        "video": false,
        "poster_path": "\/sEpmKEptwJ7nBzDAaL9xSyV5axS.jpg",
        "id": 555974,
        "adult": false,
        "backdrop_path": "\/tE7SjDwITs333u4fBICqEmCRfgk.jpg",
        "original_language": "en",
        "original_title": "Brahms: The Boy II",
        "genre_ids": [27, 9648, 53],
        "title": "Brahms: The Boy II",
        "vote_average": 3.5,
        "overview": "After a family moves into the Heelshire Mansion, their young son soon makes friends with a life-like doll called Brahms.",
        "release_date": "2020-02-20"
    }, {
        "popularity": 30.916,
        "vote_count": 9312,
        "video": false,
        "poster_path": "\/1cFVCUYKSBuEUDoVftKvqcfuIgc.jpg",
        "id": 102651,
        "adult": false,
        "backdrop_path": "\/zsGiTcMZ9yp2as3FmPMgZyil5mc.jpg",
        "original_language": "en",
        "original_title": "Maleficent",
        "genre_ids": [28, 12, 14, 10749, 10751],
        "title": "Maleficent",
        "vote_average": 7.1,
        "overview": "A beautiful, pure-hearted young woman, Maleficent has an idyllic life growing up in a peaceable forest kingdom, until one day when an invading army threatens the harmony of the land.  Maleficent rises to be the land's fiercest protector, but she ultimately suffers a ruthless betrayal – an act that begins to turn her heart into stone. Bent on revenge, Maleficent faces an epic battle with the invading King's successor and, as a result, places a curse upon his newborn infant Aurora. As the child grows, Maleficent realizes that Aurora holds the key to peace in the kingdom – and to Maleficent's true happiness as well.",
        "release_date": "2014-05-28"
    }, {
        "popularity": 36.138,
        "vote_count": 8318,
        "video": false,
        "poster_path": "\/AtsgWhDnHTq68L0lLsUrCnM7TjG.jpg",
        "id": 299537,
        "adult": false,
        "backdrop_path": "\/w2PMyoyLU22YvrGK3smVM9fW1jj.jpg",
        "original_language": "en",
        "original_title": "Captain Marvel",
        "genre_ids": [28, 12, 878],
        "title": "Captain Marvel",
        "vote_average": 7,
        "overview": "The story follows Carol Danvers as she becomes one of the universe’s most powerful heroes when Earth is caught in the middle of a galactic war between two alien races. Set in the 1990s, Captain Marvel is an all-new adventure from a previously unseen period in the history of the Marvel Cinematic Universe.",
        "release_date": "2019-03-06"
    }, {
        "popularity": 41.319,
        "vote_count": 7688,
        "video": false,
        "poster_path": "\/gajva2L0rPYkEWjzgFlBXCAVBE5.jpg",
        "id": 335984,
        "adult": false,
        "backdrop_path": "\/8QXGNP0Vb4nsYKub59XpAhiUSQN.jpg",
        "original_language": "en",
        "original_title": "Blade Runner 2049",
        "genre_ids": [18, 878],
        "title": "Blade Runner 2049",
        "vote_average": 7.4,
        "overview": "Thirty years after the events of the first film, a new blade runner, LAPD Officer K, unearths a long-buried secret that has the potential to plunge what's left of society into chaos. K's discovery leads him on a quest to find Rick Deckard, a former LAPD blade runner who has been missing for 30 years.",
        "release_date": "2017-10-04"
    }, {
        "popularity": 37.896,
        "vote_count": 14093,
        "video": false,
        "poster_path": "\/aAmfIX3TT40zUHGcCKrlOZRKC7u.jpg",
        "id": 150540,
        "adult": false,
        "backdrop_path": "\/gPZi2ivLO3C6YffwOVapzKrSBzx.jpg",
        "original_language": "en",
        "original_title": "Inside Out",
        "genre_ids": [16, 35, 18, 10751],
        "title": "Inside Out",
        "vote_average": 7.9,
        "overview": "Growing up can be a bumpy road, and it's no exception for Riley, who is uprooted from her Midwest life when her father starts a new job in San Francisco. Riley's guiding emotions— Joy, Fear, Anger, Disgust and Sadness—live in Headquarters, the control centre inside Riley's mind, where they help advise her through everyday life and tries to keep things positive, but the emotions conflict on how best to navigate a new city, house and school.",
        "release_date": "2015-06-09"
    }, {
        "popularity": 45.321,
        "vote_count": 964,
        "video": false,
        "poster_path": "\/7gOozJufKJ9WjcIs38KEs08Iq3D.jpg",
        "id": 473033,
        "adult": false,
        "backdrop_path": "\/5qTZGBHJNq6riBliYtOnH4yUN6x.jpg",
        "original_language": "en",
        "original_title": "Uncut Gems",
        "genre_ids": [80, 18, 53],
        "title": "Uncut Gems",
        "vote_average": 7.2,
        "overview": "A charismatic New York City jeweler always on the lookout for the next big score makes a series of high-stakes bets that could lead to the windfall of a lifetime. Howard must perform a precarious high-wire act, balancing business, family, and encroaching adversaries on all sides in his relentless pursuit of the ultimate win.",
        "release_date": "2019-11-14"
    }, {
        "popularity": 46.446,
        "vote_count": 11035,
        "video": false,
        "poster_path": "\/sM33SANp9z6rXW8Itn7NnG1GOEs.jpg",
        "id": 269149,
        "adult": false,
        "backdrop_path": "\/mhdeE1yShHTaDbJVdWyTlzFvNkr.jpg",
        "original_language": "en",
        "original_title": "Zootopia",
        "genre_ids": [12, 16, 35, 10751],
        "title": "Zootopia",
        "vote_average": 7.7,
        "overview": "Determined to prove herself, Officer Judy Hopps, the first bunny on Zootopia's police force, jumps at the chance to crack her first case - even if it means partnering with scam-artist fox Nick Wilde to solve the mystery.",
        "release_date": "2016-02-11"
    }, {
        "popularity": 40.782,
        "id": 672,
        "video": false,
        "vote_count": 13238,
        "vote_average": 7.7,
        "title": "Harry Potter and the Chamber of Secrets",
        "release_date": "2002-11-13",
        "original_language": "en",
        "original_title": "Harry Potter and the Chamber of Secrets",
        "genre_ids": [12, 14],
        "backdrop_path": "\/avqzwKn89VetTEvAlBePt3Us6Al.jpg",
        "adult": false,
        "overview": "Cars fly, trees fight back, and a mysterious house-elf comes to warn Harry Potter at the start of his second year at Hogwarts. Adventure and danger await when bloody writing on a wall announces: The Chamber Of Secrets Has Been Opened. To save Hogwarts will require all of Harry, Ron and Hermione’s magical abilities and courage.",
        "poster_path": "\/sdEOH0992YZ0QSxgXNIGLq1ToUi.jpg"
    }, {
        "popularity": 36.723,
        "vote_count": 3047,
        "video": false,
        "poster_path": "\/xvx4Yhf0DVH8G4LzNISpMfFBDy2.jpg",
        "id": 166428,
        "adult": false,
        "backdrop_path": "\/lFwykSz3Ykj1Q3JXJURnGUTNf1o.jpg",
        "original_language": "en",
        "original_title": "How to Train Your Dragon: The Hidden World",
        "genre_ids": [12, 16, 10751],
        "title": "How to Train Your Dragon: The Hidden World",
        "vote_average": 7.7,
        "overview": "As Hiccup fulfills his dream of creating a peaceful dragon utopia, Toothless’ discovery of an untamed, elusive mate draws the Night Fury away. When danger mounts at home and Hiccup’s reign as village chief is tested, both dragon and rider must make impossible decisions to save their kind.",
        "release_date": "2019-01-03"
    }, {
        "popularity": 33.541,
        "vote_count": 11899,
        "video": false,
        "poster_path": "\/tWqifoYuwLETmmasnGHO7xBjEtt.jpg",
        "id": 321612,
        "adult": false,
        "backdrop_path": "\/6aUWe0GSl69wMTSWWexsorMIvwU.jpg",
        "original_language": "en",
        "original_title": "Beauty and the Beast",
        "genre_ids": [14, 10749, 10751],
        "title": "Beauty and the Beast",
        "vote_average": 6.9,
        "overview": "A live-action adaptation of Disney's version of the classic tale of a cursed prince and a beautiful young woman who helps him break the spell.",
        "release_date": "2017-03-16"
    }, {
        "popularity": 35.781,
        "vote_count": 5816,
        "video": false,
        "poster_path": "\/5JU9ytZJyR3zmClGmVm9q4Geqbd.jpg",
        "id": 87101,
        "adult": false,
        "backdrop_path": "\/3DmxSJ08m9wwbxwbwHzA4dunGNO.jpg",
        "original_language": "en",
        "original_title": "Terminator Genisys",
        "genre_ids": [28, 12, 878, 53],
        "title": "Terminator Genisys",
        "vote_average": 5.9,
        "overview": "The year is 2029. John Connor, leader of the resistance continues the war against the machines. At the Los Angeles offensive, John's fears of the unknown future begin to emerge when TECOM spies reveal a new plot by SkyNet that will attack him from both fronts; past and future, and will ultimately change warfare forever.",
        "release_date": "2015-06-23"
    }]
}